{
  "name": "pluto",
  "version": "1.0.0",
  "description": "",
  "main": "index.js",
  "scripts": {
    "start": "npm run webpack && npm run scss",
    "webpack": "npm run css && webpack serve --mode development --env development --config webpack.config.js",
    "css": "node-sass --output-style compressed -o dist src/scss"
  },
  "author": "",
  "license": "ISC",
  "devDependencies": {
    "autoprefixer": "^10.3.1",
    "babel-core": "^6.26.3",
    "babel-loader": "^8.2.2",
    "babel-plugin-transform-runtime": "^6.23.0",
    "babel-preset-es2015": "^6.24.1",
    "css-loader": "^6.2.0",
    "postcss-cli": "^8.3.1",
    "sass": "^1.36.0",
    "sass-loader": "^12.1.0",
    "style-loader": "^3.2.1",
    "webpack": "^5.46.0",
    "webpack-cli": "^4.7.2",
    "webpack-dev-server": "^3.11.2"
  },
  "dependencies": {
    "babel-polyfill": "^6.26.0",
    "babel-runtime": "^6.26.0"
  }
}
